{"results":[{"vote_count":2780,"id":353486,"video":false,"vote_average":6.5,"title":"Jumanji: Welcome to the Jungle","popularity":149.133504,"poster_path":"\/bXrZ5iHBEjH7WMidbUDQ0U2xbmr.jpg","original_language":"en","original_title":"Jumanji: Welcome to the Jungle","genre_ids":[28,12,35,10751],"backdrop_path":"\/rz3TAyd5kmiJmozp3GUbYeB5Kep.jpg","adult":false,"overview":"The tables are turned as four teenagers are sucked into Jumanji's world - pitted against rhinos, black mambas and an endless variety of jungle traps and puzzles. To survive, they'll play as characters from the game.","release_date":"2017-12-09"},{"vote_count":339,"id":401981,"video":false,"vote_average":6.4,"title":"Red Sparrow","popularity":105.651904,"poster_path":"\/vLCogyfQGxVLDC1gqUdNAIkc29L.jpg","original_language":"en","original_title":"Red Sparrow","genre_ids":[9648,53],"backdrop_path":"\/sGzuQYSTwJvLBc2PnuSVLHhuFeh.jpg","adult":false,"overview":"Prima ballerina Dominika Egorova faces a bleak and uncertain future after she suffers an injury that ends her career. She soon turns to Sparrow School, a secret intelligence service that trains exceptional young people to use their minds and bodies as weapons. Egorova emerges as the most dangerous Sparrow after completing the sadistic training process. As she comes to terms with her new abilities, Dominika meets a CIA agent who tries to convince her that he is the only person she can trust.","release_date":"2018-03-01"},{"vote_count":16,"id":449176,"video":false,"vote_average":7.3,"title":"Love, Simon","popularity":46.422966,"poster_path":"\/5YUYg5q7QfC4IoNwNUtiwdiYKPr.jpg","original_language":"en","original_title":"Love, Simon","genre_ids":[35,18,10749],"backdrop_path":"\/vTmHn4nm3wlshGepK6annGCKRFT.jpg","adult":false,"overview":"Everyone deserves a great love story. But for seventeen-year old Simon Spier it’s a little more complicated: he’s yet to tell his family or friends he’s gay and he doesn’t actually know the identity of the anonymous classmate he’s fallen for online.","release_date":"2018-03-16"},{"vote_count":95,"id":395990,"video":false,"vote_average":5,"title":"Death Wish","popularity":39.271336,"poster_path":"\/wamM5AyPAeNPNPfjWRI9WD8dweQ.jpg","original_language":"en","original_title":"Death Wish","genre_ids":[28,80,18,53],"backdrop_path":"\/g1ovo0YhL9FcZmgoW4Fx6F4x1e6.jpg","adult":false,"overview":"A mild-mannered father is transformed into a killing machine after his family is torn apart by a violent act.","release_date":"2018-03-02"},{"vote_count":102,"id":407451,"video":false,"vote_average":4.9,"title":"A Wrinkle in Time","popularity":38.054194,"poster_path":"\/yAcb58vipewa1BfNit2RjE6boXA.jpg","original_language":"en","original_title":"A Wrinkle in Time","genre_ids":[12,878,10751,14],"backdrop_path":"\/zqUaMojohr96itJYCE3W1NauTn7.jpg","adult":false,"overview":"After the disappearance of her scientist father, three peculiar beings send Meg, her brother, and her friend to space in order to find him.","release_date":"2018-03-08"},{"vote_count":131,"id":445571,"video":false,"vote_average":7.5,"title":"Game Night","popularity":29.226497,"poster_path":"\/1wS89vns6cseCn4UHSqj97xKEKW.jpg","original_language":"en","original_title":"Game Night","genre_ids":[9648,35,80,28],"backdrop_path":"\/jknYekTVH1n7doNVj5wiCMKhx7u.jpg","adult":false,"overview":"Max and Annie's weekly game night gets kicked up a notch when Max's brother Brooks arranges a murder mystery party -- complete with fake thugs and federal agents. So when Brooks gets kidnapped, it's all supposed to be part of the game. As the competitors set out to solve the case, they start to learn that neither the game nor Brooks are what they seem to be. The friends soon find themselves in over their heads as each twist leads to another unexpected turn over the course of one chaotic night.","release_date":"2018-02-22"},{"vote_count":0,"id":268896,"video":false,"vote_average":0,"title":"Pacific Rim: Uprising","popularity":27.020878,"poster_path":"\/v5HlmJK9bdeHxN2QhaFP1ivjX3U.jpg","original_language":"en","original_title":"Pacific Rim: Uprising","genre_ids":[28,14,878],"backdrop_path":"\/jj8qgyrfQ12ZLZSY1PEbA3FRkfY.jpg","adult":false,"overview":"It has been ten years since The Battle of the Breach and the oceans are still, but restless. Vindicated by the victory at the Breach, the Jaeger program has evolved into the most powerful global defense force in human history. The PPDC now calls upon the best and brightest to rise up and become the next generation of heroes when the Kaiju threat returns.","release_date":"2018-03-21"},{"vote_count":3,"id":370567,"video":false,"vote_average":1,"title":"Sherlock Gnomes","popularity":26.246073,"poster_path":"\/nEKyrDJWjtouIhA1WzjNDhNfjIY.jpg","original_language":"en","original_title":"Sherlock Gnomes","genre_ids":[10749,16,35,10751,14,9648],"backdrop_path":"\/dmbD8FDr6DDdinGEs14HC2FmY2w.jpg","adult":false,"overview":"Garden gnomes, Gnomeo & Juliet, recruit renown detective, Sherlock Gnomes, to investigate the mysterious disappearance of other garden ornaments.","release_date":"2018-03-15"},{"vote_count":2,"id":433627,"video":false,"vote_average":0,"title":"7 Days in Entebbe","popularity":23.459661,"poster_path":"\/hKbZWIMyMThZ5rXrwlImXYpXMMo.jpg","original_language":"en","original_title":"7 Days in Entebbe","genre_ids":[53,18],"backdrop_path":"\/x9JU7olOsRM4xgesgWAqMupygLT.jpg","adult":false,"overview":"Four hijackers take over an airplane, take the passengers hostage, and force it to land in Entebbe, Uganda in 1976 in an effort to free of dozens of Palestinian terrorists jailed in Israel.","release_date":"2018-03-16"},{"vote_count":988,"id":395834,"video":false,"vote_average":7.4,"title":"Wind River","popularity":23.228543,"poster_path":"\/pySivdR845Hom4u4T2WNkJxe6Ad.jpg","original_language":"en","original_title":"Wind River","genre_ids":[80,18,9648,53],"backdrop_path":"\/iF9d73lbtDYeCsPhQmjtkEmlrYG.jpg","adult":false,"overview":"An FBI agent teams with the town's veteran game tracker to investigate a murder that occurred on a Native American reservation.","release_date":"2017-08-03"},{"vote_count":109,"id":468202,"video":false,"vote_average":7.2,"title":"The Girl in the Fog","popularity":21.900894,"poster_path":"\/eWINXglQ9JVxUuzouYK7arm9YT1.jpg","original_language":"it","original_title":"La ragazza nella nebbia","genre_ids":[80,53],"backdrop_path":"\/1r9UN54aVFTty9AlLwPkW6ZHVFl.jpg","adult":false,"overview":"Based on the bestselling novel by Donato Carrisi, THE GIRL IN THE FOG is a gripping and chilling thriller that brings us to a hazy mountain village where enigmatic Detective Vogel is investigating on the sudden disappearance of fifteen-year-old Anna Lou. But with the case at the heart of a media storm, the fine line between the police and criminals begins to blur and soon everyone becomes a suspect.","release_date":"2017-10-26"},{"vote_count":120,"id":402897,"video":false,"vote_average":7.5,"title":"The Death of Stalin","popularity":20.7554,"poster_path":"\/66nL9hKPerEZMOeCQuWD322Nm8g.jpg","original_language":"en","original_title":"The Death of Stalin","genre_ids":[35,36],"backdrop_path":"\/tx5TFMF85qU2Ug4TRIGQZbDpzFA.jpg","adult":false,"overview":"Stalin's core team of ministers tussle for control following the Russian leader's stroke in 1953.","release_date":"2017-10-20"},{"vote_count":975,"id":446354,"video":false,"vote_average":7,"title":"The Post","popularity":20.536902,"poster_path":"\/qyRwj5VvuTRdJ76o2grP93grNxt.jpg","original_language":"en","original_title":"The Post","genre_ids":[18,36],"backdrop_path":"\/2LR3XKthtguN7vOz99Q91IeEl1i.jpg","adult":false,"overview":"A cover-up that spanned four U.S. Presidents pushed the country's first female newspaper publisher and a hard-driving editor to join an unprecedented battle between journalist and government. Inspired by true events.","release_date":"2017-12-22"},{"vote_count":27,"id":381719,"video":false,"vote_average":5.4,"title":"Peter Rabbit","popularity":18.414132,"poster_path":"\/2yjSvEDuM3rLDng40erLsWkQRfn.jpg","original_language":"en","original_title":"Peter Rabbit","genre_ids":[16],"backdrop_path":"\/vBIvSqbSNbABqAqP92utXzSXUhE.jpg","adult":false,"overview":"Feature adaptation of Beatrix Potter's classic tale of a rebellious rabbit trying to sneak into a farmer's vegetable garden.","release_date":"2018-02-07"},{"vote_count":3,"id":333339,"video":false,"vote_average":0,"title":"Ready Player One","popularity":18.206539,"poster_path":"\/pU1ULUq8D3iRxl1fdX2lZIzdHuI.jpg","original_language":"en","original_title":"Ready Player One","genre_ids":[12,878,28],"backdrop_path":"\/4f9HoWfuSsQKpKDnbMcDEVAs1Rh.jpg","adult":false,"overview":"When the creator of a popular video game system dies, a virtual contest is created to compete for his billions.","release_date":"2018-03-28"},{"vote_count":3,"id":407439,"video":false,"vote_average":5.8,"title":"Mary Magdalene","popularity":17.804544,"poster_path":"\/5eyPpqvkH6OsXpohfHPk2FM8MVu.jpg","original_language":"en","original_title":"Mary Magdalene","genre_ids":[18],"backdrop_path":"\/sGUYxZ39GkVuUTcfz35rQjLGeyy.jpg","adult":false,"overview":"Set in the Holy Land in the first century C.E., a young woman leaves her small fishing village and traditional family behind to join a radical new social movement. At its head is a charismatic leader, Jesus of Nazareth, who promises that the world is changing. Mary is searching for a new way of living, and an authenticity that is denied her by the rigid hierarchies of the day. As the notoriety of the group spread and more are drawn to follow Jesus’ inspirational message, Mary’s spiritual journey places her at the heart of a story that will lead to the capital city of Jerusalem, where she must confront the reality of Jesus’ destiny and her own place within it.","release_date":"2018-03-15"},{"vote_count":97,"id":416234,"video":false,"vote_average":6,"title":"Winchester","popularity":16.893525,"poster_path":"\/tHDtskokZeO9B3JBdR1dSH0uqad.jpg","original_language":"en","original_title":"Winchester","genre_ids":[14,27,9648,53],"backdrop_path":"\/qUL0vsw5ZVkzXLmDBbdZ46sS7UX.jpg","adult":false,"overview":"Firearm heiress Sarah Winchester is convinced that she is haunted by the souls killed at the hands of the Winchester repeating rifle. After the sudden deaths of her husband and child, she throws herself into the construction of an enormous mansion designed to keep the evil spirits at bay. But when skeptical San Francisco psychiatrist Eric Price is dispatched to the estate to evaluate her state of mind, he discovers that her obsession may not be so insane after all.","release_date":"2018-02-02"},{"vote_count":17,"id":340022,"video":false,"vote_average":6.9,"title":"Gringo","popularity":16.561788,"poster_path":"\/dxeVPklFwng2IowqRPNI4od6aXv.jpg","original_language":"en","original_title":"Gringo","genre_ids":[35,18,28],"backdrop_path":"\/djJifFvLgvYEXlOdR9mAH2vteNp.jpg","adult":false,"overview":"An American businessman with a stake in a pharmaceutical company that's about to go public finds his life is thrown into turmoil by an incident in Mexico.","release_date":"2018-03-09"},{"vote_count":231,"id":429351,"video":false,"vote_average":4.8,"title":"12 Strong","popularity":15.956903,"poster_path":"\/j18021qCeRi3yUBtqd2UFj1c0RQ.jpg","original_language":"en","original_title":"12 Strong","genre_ids":[10752,18,36],"backdrop_path":"\/x5EUEv1N9g4BCX9GQXKvv3nqMVo.jpg","adult":false,"overview":"A team of CIA agents and special forces head into Afghanistan in the aftermath of the September 11th attacks in an attempt to dismantle the Taliban.","release_date":"2018-01-18"},{"vote_count":52,"id":387592,"video":false,"vote_average":5.6,"title":"Early Man","popularity":15.047657,"poster_path":"\/ugw07fJIZMVrrIGeN1MO7Xecj5h.jpg","original_language":"en","original_title":"Early Man","genre_ids":[10751,35,16],"backdrop_path":"\/z30NXJEY4YDBWEL0ICHGtv4Mt26.jpg","adult":false,"overview":"Set at the dawn of time, when dinosaurs and woolly mammoths roamed the earth, Early Man tells the story of how one plucky caveman unites his tribe against a mighty enemy and saves the day!","release_date":"2018-01-26"}],"page":1,"total_results":195,"dates":{"maximum":"2018-04-11","minimum":"2018-03-24"},"total_pages":10}