{
  "results": [
    {
      "vote_count": 106,
      "id": 416234,
      "video": false,
      "vote_average": 6,
      "title": "Winchester",
      "popularity": 14.137451,
      "poster_path": "/tHDtskokZeO9B3JBdR1dSH0uqad.jpg",
      "original_language": "en",
      "original_title": "Winchester",
      "genre_ids": [
        14,
        27,
        9648,
        53
      ],
      "backdrop_path": "/qUL0vsw5ZVkzXLmDBbdZ46sS7UX.jpg",
      "adult": false,
      "overview": "Firearm heiress Sarah Winchester is convinced that she is haunted by the souls killed at the hands of the Winchester repeating rifle. After the sudden deaths of her husband and child, she throws herself into the construction of an enormous mansion designed to keep the evil spirits at bay. But when skeptical San Francisco psychiatrist Eric Price is dispatched to the estate to evaluate her state of mind, he discovers that her obsession may not be so insane after all.",
      "release_date": ""
    },
    {
      "vote_count": 102,
      "id": 403431,
      "video": false,
      "vote_average": 7.3,
      "title": "Brigsby Bear",
      "popularity": 13.043194,
      "poster_path": "/gcmtWeQt7WPAs2yQOHBbUbC1fpw.jpg",
      "original_language": "en",
      "original_title": "Brigsby Bear",
      "genre_ids": [
        35,
        18
      ],
      "backdrop_path": "/dd442kgk97K8fXChOpUVEU2M1q4.jpg",
      "adult": false,
      "overview": "Brigsby Bear Adventures is a children's TV show produced for an audience of one: James. When the show abruptly ends, James's life changes forever, and he sets out to finish the story himself.",
      "release_date": "2017-07-27"
    },
    {
      "vote_count": 77,
      "id": 398181,
      "video": false,
      "vote_average": 6.5,
      "title": "You Were Never Really Here",
      "popularity": 12.914065,
      "poster_path": "/ktPbjD6nYg5NxmeTt72Iqaw5GD0.jpg",
      "original_language": "en",
      "original_title": "You Were Never Really Here",
      "genre_ids": [
        18,
        9648,
        53
      ],
      "backdrop_path": "/g2yZ1kiGwLO5AUSmtsEJeFEWghJ.jpg",
      "adult": false,
      "overview": "A traumatized veteran, unafraid of violence, tracks down missing girls for a living. When a job spins out of control, Joe's nightmares overtake him as a conspiracy is uncovered leading to what may be his death trip or his awakening.",
      "release_date": "2017-11-08"
    },
    {
      "vote_count": 95,
      "id": 455236,
      "video": false,
      "vote_average": 4.5,
      "title": "Accident Man",
      "popularity": 12.585407,
      "poster_path": "/bHFKej3Dbr8kGRSRHpkoFHq9TJQ.jpg",
      "original_language": "en",
      "original_title": "Accident Man",
      "genre_ids": [
        28,
        80,
        53
      ],
      "backdrop_path": "/ikSJWKUZEgXYsB1UMAYlNxqzXwT.jpg",
      "adult": false,
      "overview": "Mike Fallon, the Accident Man, is a stone cold killer.  When a loved one is murdered by his own crew, Fallon is forced to avenge the one person who actually meant something to him.",
      "release_date": "2018-02-06"
    },
    {
      "vote_count": 112,
      "id": 399366,
      "video": false,
      "vote_average": 7.2,
      "title": "Marrowbone",
      "popularity": 12.477163,
      "poster_path": "/ykn2GWDINcbunWPoNVRQtMaybo7.jpg",
      "original_language": "en",
      "original_title": "Marrowbone",
      "genre_ids": [
        18,
        27,
        53
      ],
      "backdrop_path": "/5Dd6HYOSzodtsoVKUR7H6442XRm.jpg",
      "adult": false,
      "overview": "A young man and his four younger siblings, who have kept secret the death of their beloved mother in order to remain together, are plagued by a sinister presence in the sprawling manor in which they live.",
      "release_date": "2017-10-27"
    },
    {
      "vote_count": 57,
      "id": 387592,
      "video": false,
      "vote_average": 5.7,
      "title": "Early Man",
      "popularity": 12.228503,
      "poster_path": "/ugw07fJIZMVrrIGeN1MO7Xecj5h.jpg",
      "original_language": "en",
      "original_title": "Early Man",
      "genre_ids": [
        10751,
        35,
        16
      ],
      "backdrop_path": "/z30NXJEY4YDBWEL0ICHGtv4Mt26.jpg",
      "adult": false,
      "overview": "Set at the dawn of time, when dinosaurs and woolly mammoths roamed the earth, Early Man tells the story of how one plucky caveman unites his tribe against a mighty enemy and saves the day!",
      "release_date": "2018-01-26"
    },
    {
      "vote_count": 93,
      "id": 423646,
      "video": false,
      "vote_average": 7,
      "title": "In the Fade",
      "popularity": 10.792309,
      "poster_path": "/jYD4ajXIpBfk8YTPsNqvfm60jN0.jpg",
      "original_language": "de",
      "original_title": "Aus dem Nichts",
      "genre_ids": [
        18
      ],
      "backdrop_path": "/wmTYHsn5plu4fgTjgC0b7a43ft3.jpg",
      "adult": false,
      "overview": "Set in the German-Turkish community in Hamburg, a woman takes revenge for her family in the aftermath of a bomb explosion.",
      "release_date": "2017-11-23"
    },
    {
      "vote_count": 0,
      "id": 505712,
      "video": false,
      "vote_average": 0,
      "title": "Martı",
      "popularity": 10.772274,
      "poster_path": "/aUJVnCZhbt1wSMa9Dy9syO874Fk.jpg",
      "original_language": "tr",
      "original_title": "Martı",
      "genre_ids": [
        18
      ],
      "backdrop_path": "/zY1NkLjhT5Qa87dc32rkgzghoEw.jpg",
      "adult": false,
      "overview": "",
      "release_date": "2018-03-23"
    },
    {
      "vote_count": 131,
      "id": 418680,
      "video": false,
      "vote_average": 7,
      "title": "Goodbye Christopher Robin",
      "popularity": 10.461501,
      "poster_path": "/AsUMHAeyi339ac0qyiBaMN1TkS5.jpg",
      "original_language": "en",
      "original_title": "Goodbye Christopher Robin",
      "genre_ids": [
        10751,
        36
      ],
      "backdrop_path": "/tUVVEGe16K5hfN7jH5MhJYjbCt2.jpg",
      "adult": false,
      "overview": "The behind the scenes story of the life of A.A. Milne and the creation of the Winnie the Pooh stories inspired by his son Christopher Robin.",
      "release_date": "2017-09-29"
    },
    {
      "vote_count": 0,
      "id": 510262,
      "video": false,
      "vote_average": 0,
      "title": "Tuya, Mía... Te la apuesto",
      "popularity": 10.232307,
      "poster_path": null,
      "original_language": "en",
      "original_title": "Tuya, Mía... Te la apuesto",
      "genre_ids": [
        35
      ],
      "backdrop_path": null,
      "adult": false,
      "overview": "How far does a soccer fan goes for his beloved national team? Mariano Cárdenas will risk his job, wife and family to support his soccer team during the World Cup qualifiers.",
      "release_date": "2018-03-22"
    },
    {
      "vote_count": 21,
      "id": 371608,
      "video": false,
      "vote_average": 5.1,
      "title": "The Strangers: Prey at Night",
      "popularity": 10.22527,
      "poster_path": "/wo3gu56JKRwZ2TpKt8mPjXLQK23.jpg",
      "original_language": "en",
      "original_title": "The Strangers: Prey at Night",
      "genre_ids": [
        27,
        53
      ],
      "backdrop_path": "/aUtLuEvTI1Z0vItORUYho4UiU6z.jpg",
      "adult": false,
      "overview": "A family's road trip takes a dangerous turn when they arrive at a secluded mobile home park to stay with some relatives and find it mysteriously deserted. Under the cover of darkness, three masked psychopaths pay them a visit to test the family's every limit as they struggle to survive.",
      "release_date": "2018-03-07"
    },
    {
      "vote_count": 4,
      "id": 447332,
      "video": false,
      "vote_average": 0,
      "title": "A Quiet Place",
      "popularity": 10.034364,
      "poster_path": "/nAU74GmpUk7t5iklEp3bufwDq4n.jpg",
      "original_language": "en",
      "original_title": "A Quiet Place",
      "genre_ids": [
        18,
        27,
        53
      ],
      "backdrop_path": "/roYyPiQDQKmIKUEhO912693tSja.jpg",
      "adult": false,
      "overview": "A family live an isolated existence in utter silence, for fear of an unknown threat that follows and attacks at any sound.",
      "release_date": "2018-04-05"
    },
    {
      "vote_count": 180,
      "id": 453201,
      "video": false,
      "vote_average": 5.1,
      "title": "The 15:17 to Paris",
      "popularity": 9.947591,
      "poster_path": "/qxJQ0VBCuJkJhJmuWzxI408ngwd.jpg",
      "original_language": "en",
      "original_title": "The 15:17 to Paris",
      "genre_ids": [
        18,
        36,
        53
      ],
      "backdrop_path": "/gkkBhctHPGg8hrmtWbO3ySZoj4z.jpg",
      "adult": false,
      "overview": "In August 2015, an ISIS terrorist boarded train #9364 from Brussels to Paris. Armed with an AK-47 and enough ammo to kill more than 500 people, the terrorist might have succeeded except for three American friends who refused to give in to fear. Stone was a martial arts enthusiast and airman first class in the U.S. Air Force, Skarlatos was a member of the Oregon National Guard, and all three pals proved fearless as they charged and ultimately overpowered the gunman after he emerged from a bathroom armed and ready to kill.",
      "release_date": "2018-02-02"
    },
    {
      "vote_count": 23,
      "id": 407439,
      "video": false,
      "vote_average": 6.1,
      "title": "Mary Magdalene",
      "popularity": 9.61604,
      "poster_path": "/5eyPpqvkH6OsXpohfHPk2FM8MVu.jpg",
      "original_language": "en",
      "original_title": "Mary Magdalene",
      "genre_ids": [
        18
      ],
      "backdrop_path": "/or9m7UUEITgkkJQK1m8fs93eJ9w.jpg",
      "adult": false,
      "overview": "Set in the Holy Land in the first century C.E., a young woman leaves her small fishing village and traditional family behind to join a radical new social movement. At its head is a charismatic leader, Jesus of Nazareth, who promises that the world is changing. Mary is searching for a new way of living, and an authenticity that is denied her by the rigid hierarchies of the day. As the notoriety of the group spread and more are drawn to follow Jesus’ inspirational message, Mary’s spiritual journey places her at the heart of a story that will lead to the capital city of Jerusalem, where she must confront the reality of Jesus’ destiny and her own place within it.",
      "release_date": "2018-03-15"
    },
    {
      "vote_count": 5,
      "id": 433627,
      "video": false,
      "vote_average": 7.7,
      "title": "7 Days in Entebbe",
      "popularity": 9.396746,
      "poster_path": "/hKbZWIMyMThZ5rXrwlImXYpXMMo.jpg",
      "original_language": "en",
      "original_title": "7 Days in Entebbe",
      "genre_ids": [
        53,
        18
      ],
      "backdrop_path": "/x9JU7olOsRM4xgesgWAqMupygLT.jpg",
      "adult": false,
      "overview": "Four hijackers take over an airplane, take the passengers hostage, and force it to land in Entebbe, Uganda in 1976 in an effort to free of dozens of Palestinian terrorists jailed in Israel.",
      "release_date": "2018-03-16"
    },
    {
      "vote_count": 20,
      "id": 340022,
      "video": false,
      "vote_average": 6.7,
      "title": "Gringo",
      "popularity": 9.258436,
      "poster_path": "/dxeVPklFwng2IowqRPNI4od6aXv.jpg",
      "original_language": "en",
      "original_title": "Gringo",
      "genre_ids": [
        35,
        18,
        28
      ],
      "backdrop_path": "/djJifFvLgvYEXlOdR9mAH2vteNp.jpg",
      "adult": false,
      "overview": "An American businessman with a stake in a pharmaceutical company that's about to go public finds his life is thrown into turmoil by an incident in Mexico.",
      "release_date": "2018-03-09"
    },
    {
      "vote_count": 186,
      "id": 432613,
      "video": false,
      "vote_average": 6.6,
      "title": "Marry Me, Dude",
      "popularity": 9.118115,
      "poster_path": "/zSdMnPrV1nnN9vu1AwKL6eocyXG.jpg",
      "original_language": "fr",
      "original_title": "Épouse-moi mon pote",
      "genre_ids": [
        35
      ],
      "backdrop_path": "/hNpGHBaF5P3rbteDHZqjPQFvm5o.jpg",
      "adult": false,
      "overview": "Yassine asks his best friend Fred to marry him in order to avoid deportation...",
      "release_date": "2017-10-25"
    },
    {
      "vote_count": 1,
      "id": 437557,
      "video": false,
      "vote_average": 0,
      "title": "Blockers",
      "popularity": 8.663544,
      "poster_path": "/9qKMYfiJTcUQbuBl82yxrmLSCX5.jpg",
      "original_language": "en",
      "original_title": "Blockers",
      "genre_ids": [
        35
      ],
      "backdrop_path": "/zpo35zCeqlQok4xG4w9c12YrRTx.jpg",
      "adult": false,
      "overview": "When three parents discover their daughters’ pact to lose their virginity at prom, they launch a covert one-night operation to stop the teens from sealing the deal.",
      "release_date": "2018-03-30"
    },
    {
      "vote_count": 1,
      "id": 446171,
      "video": false,
      "vote_average": 0,
      "title": "Mrs. Hyde",
      "popularity": 8.271106,
      "poster_path": "/lmBGn8QBWG8ojGdKemY959qjdMq.jpg",
      "original_language": "fr",
      "original_title": "Madame Hyde",
      "genre_ids": [
        14,
        35
      ],
      "backdrop_path": "/fxUojxi4GMfB9RWzzmZpEUI4RFj.jpg",
      "adult": false,
      "overview": "Mrs. Géquil is an eccentric teacher despised by her colleagues and students. On a stormy night, she is struck by lightning and faints. When she wakes up, she feels different. Will she now be able to keep the powerful and dangerous Mrs. Hyde contained?",
      "release_date": "2018-03-28"
    },
    {
      "vote_count": 31,
      "id": 354285,
      "video": false,
      "vote_average": 6.4,
      "title": "The Sense of an Ending",
      "popularity": 8.130574,
      "poster_path": "/gvW0Ki7pEv4iZYbtGwgcvqR6s1c.jpg",
      "original_language": "en",
      "original_title": "The Sense of an Ending",
      "genre_ids": [
        9648,
        18
      ],
      "backdrop_path": "/gI0YX75utfJCBBXlO0EZ9da2zR5.jpg",
      "adult": false,
      "overview": "A man becomes haunted by his past and is presented with a mysterious legacy that causes him re-think his current situation in life.",
      "release_date": "2017-03-10"
    }
  ],
  "page": 2,
  "total_results": 184,
  "dates": {
    "maximum": "2018-04-17",
    "minimum": "2018-04-01"
  },
  "total_pages": 10
}
